C:\Users\tdasari\Desktop\Spring Boot\spring-boot-hibernate-search-example\spring-boot-search-example\src\main\java\com\search\HibernateSearchConfiguration.java
C:\Users\tdasari\Desktop\Spring Boot\spring-boot-hibernate-search-example\spring-boot-search-example\src\main\java\com\search\service\HibernateSearchService.java
C:\Users\tdasari\Desktop\Spring Boot\spring-boot-hibernate-search-example\spring-boot-search-example\src\main\java\com\search\model\ItemDetails.java
C:\Users\tdasari\Desktop\Spring Boot\spring-boot-hibernate-search-example\spring-boot-search-example\src\main\java\com\search\service\SearchService.java
C:\Users\tdasari\Desktop\Spring Boot\spring-boot-hibernate-search-example\spring-boot-search-example\src\main\java\com\search\service\SearchServiceImpl.java
C:\Users\tdasari\Desktop\Spring Boot\spring-boot-hibernate-search-example\spring-boot-search-example\src\main\java\com\search\SpringBootSearchApplication.java
C:\Users\tdasari\Desktop\Spring Boot\spring-boot-hibernate-search-example\spring-boot-search-example\src\main\java\com\search\controller\SearchController.java
C:\Users\tdasari\Desktop\Spring Boot\spring-boot-hibernate-search-example\spring-boot-search-example\src\main\java\com\search\dao\BooksRepository.java
